105,0,0,0,0,0,0,0,0,0
0,122,0,0,0,0,0,0,0,0
0,0,107,1,0,0,0,0,0,0
0,0,1,122,0,0,0,0,0,0
0,0,0,0,119,0,0,0,0,0
0,0,0,0,0,100,0,1,0,0
0,0,0,0,0,0,109,0,0,0
0,0,0,0,0,9,0,115,0,0
0,0,0,0,0,0,0,0,32,0
0,0,0,0,0,0,0,1,73,113
